{
  apps : [
    {
      name      : "mongo-runner",
      script    : "server.js",
      instances : 1,
      exec_mode : "cluster",
      env: {
        PORT: 20080,
        NODE_ENV: "production",
        ADMIN_EMAIL: "igor.mekterovic@fer.hr"
      },
      merge_logs      : true,
      cwd: "/opt/apps/mongo-runner"
    }
  ]
}
